{
	"info": {
		"name": "Todo Project",
		"_postman_id": "03b7ace3-9286-ee78-de5c-f7650c364fb4",
		"description": "",
		"schema": "https://schema.getpostman.com/json/collection/v2.1.0/collection.json"
	},
	"item": [
		{
			"name": "Create User",
			"request": {
				"method": "POST",
				"header": [
					{
						"key": "x-access-token",
						"value": "eyJhbGciOiJIUzI1NiIsInR5cCI6IkpXVCJ9.eyJhZG1pbiI6dHJ1ZSwiaWQiOiI1YWJhN2JhYTA3NDcyYjBhMWM4ZTY4MWMiLCJuYW1lIjoiTXVoYW1tYWQgQW5nZ2EiLCJpYXQiOjE1MjIxNzM2NTYsImV4cCI6MTUyMjE3Mzk1Nn0.Z0TsUv26EEHfuf5GL4NaE6WWe6xJimWztJcEBatI5Ic"
					},
					{
						"key": "Content-Type",
						"value": "application/x-www-form-urlencoded"
					}
				],
				"body": {
					"mode": "urlencoded",
					"urlencoded": [
						{
							"key": "username",
							"value": "angga3",
							"description": "",
							"type": "text"
						},
						{
							"key": "password",
							"value": "angga1",
							"description": "",
							"type": "text"
						},
						{
							"key": "email",
							"value": "angga3@gmail.com",
							"description": "",
							"type": "text"
						}
					]
				},
				"url": {
					"raw": "localhost:3000/api/user",
					"host": [
						"localhost"
					],
					"port": "3000",
					"path": [
						"api",
						"user"
					]
				},
				"description": ""
			},
			"response": []
		},
		{
			"name": "Login User",
			"request": {
				"method": "POST",
				"header": [
					{
						"key": "x-access-token",
						"value": "eyJhbGciOiJIUzI1NiIsInR5cCI6IkpXVCJ9.eyJhZG1pbiI6dHJ1ZSwiaWQiOiI1YWJhN2JhYTA3NDcyYjBhMWM4ZTY4MWMiLCJpYXQiOjE1MjIxNzE5NzQsImV4cCI6MTUyMjE3MjI3NH0.w4VAslVjA4MBfOo_IR-X3E9EoHWvZ8DkSSeTzKDVVXw",
						"disabled": true
					},
					{
						"key": "Content-Type",
						"value": "application/x-www-form-urlencoded"
					}
				],
				"body": {
					"mode": "urlencoded",
					"urlencoded": [
						{
							"key": "username",
							"value": "angga3",
							"description": "",
							"type": "text"
						},
						{
							"key": "password",
							"value": "angga1",
							"description": "1",
							"type": "text"
						}
					]
				},
				"url": {
					"raw": "localhost:3000/api/user/login",
					"host": [
						"localhost"
					],
					"port": "3000",
					"path": [
						"api",
						"user",
						"login"
					]
				},
				"description": "Login"
			},
			"response": []
		},
		{
			"name": "Reset Password",
			"request": {
				"method": "PATCH",
				"header": [
					{
						"key": "Content-Type",
						"value": "application/x-www-form-urlencoded"
					},
					{
						"key": "x-access-token",
						"value": "eyJhbGciOiJIUzI1NiIsInR5cCI6IkpXVCJ9.eyJpZCI6NSwiZXhwaXJlZCI6MTUyMjY4MjAwOS40ODYsImlhdCI6MTUyMjU5NTYwOSwiZXhwIjoxNTI0MTE4MjkxfQ.10z_llS9ezJM-O1Gmxfh0uGr8D4PqffShPdU_rL0m0E"
					}
				],
				"body": {
					"mode": "urlencoded",
					"urlencoded": [
						{
							"key": "id_user",
							"value": "",
							"description": "",
							"type": "text",
							"disabled": true
						},
						{
							"key": "new_password",
							"value": "angga3",
							"description": "",
							"type": "text"
						},
						{
							"key": "old_password",
							"value": "angga1",
							"description": "",
							"type": "text"
						}
					]
				},
				"url": {
					"raw": "localhost:3000/api/user/changepassword",
					"host": [
						"localhost"
					],
					"port": "3000",
					"path": [
						"api",
						"user",
						"changepassword"
					]
				},
				"description": ""
			},
			"response": []
		},
		{
			"name": "Get All Task",
			"request": {
				"method": "GET",
				"header": [
					{
						"key": "Content-Type",
						"value": "application/x-www-form-urlencoded"
					},
					{
						"key": "x-access-token",
						"value": "eyJhbGciOiJIUzI1NiIsInR5cCI6IkpXVCJ9.eyJpZCI6NSwiZXhwaXJlZCI6MTUyMjY4MjY5MC42OTgsImlhdCI6MTUyMjU5NjI5MCwiZXhwIjoxNTI0MTE4OTcyfQ.zag3Ne1h34iXXIbH40nv8ITBoCr6UglNSI7n5KXqVdA"
					}
				],
				"body": {
					"mode": "urlencoded",
					"urlencoded": [
						{
							"key": "name",
							"value": "Muhammad Angga",
							"description": "",
							"type": "text"
						},
						{
							"key": "password",
							"value": "password",
							"description": "",
							"type": "text"
						}
					]
				},
				"url": {
					"raw": "localhost:3000/api/task?status=done&priority=asc",
					"host": [
						"localhost"
					],
					"port": "3000",
					"path": [
						"api",
						"task"
					],
					"query": [
						{
							"key": "status",
							"value": "done",
							"equals": true
						},
						{
							"key": "priority",
							"value": "asc",
							"equals": true
						}
					]
				},
				"description": ""
			},
			"response": []
		},
		{
			"name": "Create Task",
			"request": {
				"method": "POST",
				"header": [
					{
						"key": "Content-Type",
						"value": "application/x-www-form-urlencoded"
					},
					{
						"key": "x-access-token",
						"value": "eyJhbGciOiJIUzI1NiIsInR5cCI6IkpXVCJ9.eyJpZCI6NSwiZXhwaXJlZCI6MTUyMjY4MjY5MC42OTgsImlhdCI6MTUyMjU5NjI5MCwiZXhwIjoxNTI0MTE4OTcyfQ.zag3Ne1h34iXXIbH40nv8ITBoCr6UglNSI7n5KXqVdA"
					}
				],
				"body": {
					"mode": "urlencoded",
					"urlencoded": [
						{
							"key": "description",
							"value": "get some souce at the market when back from schools 4",
							"description": "",
							"type": "text"
						},
						{
							"key": "location",
							"value": "{\"latitude\": -12, \"longitude\": 119, \"address\": \"pungkur\"}",
							"description": "",
							"type": "text"
						},
						{
							"key": "time_start",
							"value": "12:15",
							"description": "",
							"type": "text"
						},
						{
							"key": "status",
							"value": "1",
							"description": "",
							"type": "text"
						},
						{
							"key": "name",
							"value": "get soum sauce",
							"description": "",
							"type": "text"
						},
						{
							"key": "priority",
							"value": "2",
							"description": "",
							"type": "text"
						}
					]
				},
				"url": {
					"raw": "localhost:3000/api/task",
					"host": [
						"localhost"
					],
					"port": "3000",
					"path": [
						"api",
						"task"
					]
				},
				"description": ""
			},
			"response": []
		},
		{
			"name": "Update Task",
			"request": {
				"method": "PUT",
				"header": [
					{
						"key": "Content-Type",
						"value": "application/x-www-form-urlencoded"
					},
					{
						"key": "x-access-token",
						"value": "eyJhbGciOiJIUzI1NiIsInR5cCI6IkpXVCJ9.eyJpZCI6NSwiZXhwaXJlZCI6MTUyMjY4MjY5MC42OTgsImlhdCI6MTUyMjU5NjI5MCwiZXhwIjoxNTI0MTE4OTcyfQ.zag3Ne1h34iXXIbH40nv8ITBoCr6UglNSI7n5KXqVdA"
					}
				],
				"body": {
					"mode": "urlencoded",
					"urlencoded": [
						{
							"key": "name",
							"value": "x",
							"description": "",
							"type": "text"
						},
						{
							"key": "description",
							"value": "get some tomato souce at the market when back from schools",
							"description": "",
							"type": "text"
						},
						{
							"key": "location",
							"value": "{\"latitude\": -12, \"longitude\": 119, \"address\": \"keliningan\"}",
							"description": "",
							"type": "text"
						},
						{
							"key": "status",
							"value": "1",
							"description": "",
							"type": "text"
						},
						{
							"key": "time_start",
							"value": "12:30",
							"description": "",
							"type": "text"
						},
						{
							"key": "priority",
							"value": "1",
							"description": "",
							"type": "text"
						},
						{
							"key": "task_id",
							"value": "1",
							"description": "",
							"type": "text",
							"disabled": true
						}
					]
				},
				"url": {
					"raw": "localhost:3000/api/task/17",
					"host": [
						"localhost"
					],
					"port": "3000",
					"path": [
						"api",
						"task",
						"17"
					]
				},
				"description": ""
			},
			"response": []
		},
		{
			"name": "Update Status",
			"request": {
				"method": "PATCH",
				"header": [
					{
						"key": "Content-Type",
						"value": "application/x-www-form-urlencoded"
					},
					{
						"key": "x-access-token",
						"value": "eyJhbGciOiJIUzI1NiIsInR5cCI6IkpXVCJ9.eyJpZCI6NSwiZXhwaXJlZCI6MTUyMjY4MjY5MC42OTgsImlhdCI6MTUyMjU5NjI5MCwiZXhwIjoxNTI0MTE4OTcyfQ.zag3Ne1h34iXXIbH40nv8ITBoCr6UglNSI7n5KXqVdA"
					}
				],
				"body": {
					"mode": "urlencoded",
					"urlencoded": [
						{
							"key": "id_task",
							"value": "8",
							"description": "",
							"type": "text"
						},
						{
							"key": "status",
							"value": "1",
							"description": "",
							"type": "text"
						}
					]
				},
				"url": {
					"raw": "localhost:3000/api/task/17/status",
					"host": [
						"localhost"
					],
					"port": "3000",
					"path": [
						"api",
						"task",
						"17",
						"status"
					]
				},
				"description": ""
			},
			"response": []
		},
		{
			"name": "Delete Task",
			"request": {
				"method": "DELETE",
				"header": [
					{
						"key": "x-access-token",
						"value": "eyJhbGciOiJIUzI1NiIsInR5cCI6IkpXVCJ9.eyJpZCI6NSwiZXhwaXJlZCI6MTUyMjY4MjY5MC42OTgsImlhdCI6MTUyMjU5NjI5MCwiZXhwIjoxNTI0MTE4OTcyfQ.zag3Ne1h34iXXIbH40nv8ITBoCr6UglNSI7n5KXqVdA"
					}
				],
				"body": {},
				"url": {
					"raw": "localhost:3000/api/task/17",
					"host": [
						"localhost"
					],
					"port": "3000",
					"path": [
						"api",
						"task",
						"17"
					]
				},
				"description": ""
			},
			"response": []
		},
		{
			"name": "Update Priority",
			"request": {
				"method": "PATCH",
				"header": [
					{
						"key": "x-access-token",
						"value": "eyJhbGciOiJIUzI1NiIsInR5cCI6IkpXVCJ9.eyJpZCI6NSwiZXhwaXJlZCI6MTUyMjY4MjY5MC42OTgsImlhdCI6MTUyMjU5NjI5MCwiZXhwIjoxNTI0MTE4OTcyfQ.zag3Ne1h34iXXIbH40nv8ITBoCr6UglNSI7n5KXqVdA"
					},
					{
						"key": "Content-Type",
						"value": "application/x-www-form-urlencoded"
					}
				],
				"body": {
					"mode": "urlencoded",
					"urlencoded": [
						{
							"key": "priority",
							"value": "5",
							"description": "1 to 5",
							"type": "text"
						}
					]
				},
				"url": {
					"raw": "localhost:3000/api/task/17/priority",
					"host": [
						"localhost"
					],
					"port": "3000",
					"path": [
						"api",
						"task",
						"17",
						"priority"
					]
				},
				"description": ""
			},
			"response": []
		}
	]
}